%YAML 1.1
%TAG !u! tag:unity3d.com,2011:
--- !u!114 &11400000
MonoBehaviour:
  m_ObjectHideFlags: 0
  m_CorrespondingSourceObject: {fileID: 0}
  m_PrefabInstance: {fileID: 0}
  m_PrefabAsset: {fileID: 0}
  m_GameObject: {fileID: 0}
  m_Enabled: 1
  m_EditorHideFlags: 0
  m_Script: {fileID: 11500000, guid: a4d9ac8ab5db28f47952c58be2b81f75, type: 3}
  m_Name: GameProcessConfigs
  m_EditorClassIdentifier: 
  CameraSmoothSpeedMove: 0.06
  SpeedMoveHero: 3
  RotationSpeedEnemy: 2
  MovementSpeedEnemy: 2.5
  CircleCreateEnemy: 3
  OffsetCreateEnemy: 3
  DelayBeforeCreateEnemies: 2
  SpeedCreateEnemies: 1
  DelayShowGameOver: 1.2
